{
  "version": "1.0",
  "defaultProvider": "unpkg",
  "libraries": [
    {
      "library": "@microsoft/signalr@latest",
      "destination": "wwwroot/js/signalr/",
      "files": [
        "dist/browser/signalr.min.js"
      ]
    },
    {
      "provider": "cdnjs",
      "library": "js-cookie@2.2.1",
      "destination": "wwwroot/lib/js-cookie/",
      "files": [
        "js.cookie.min.js"
      ]
    }
  ]
}